{
  "owner": "obsidiansystems",
  "repo": "rhyolite",
  "branch": "kiln",
  "private": false,
  "rev": "32a8474462179d33f593125c79a57f2ffb0e0800",
  "sha256": "0vn4v9m89spygqdvh5qwpjgy0fzss0nf9fh4dm2mccqqpq7qyhkk"
}
