<svg xmlns="http://www.w3.org/2000/svg" width="40" height="40" viewBox="0 0 40 40">
    <path fill="#1269F3" fill-rule="evenodd" d="M39.369 21.993L32.565 5.045a3.228 3.228 0 0 0-1.211-1.481A3.214 3.214 0 0 0 29.517 3H24.3l.834 8.682h5.76L20 20.7 9.105 11.682h5.76L15.7 3h-5.217c-.668 0-1.28.188-1.837.564-.557.375-.96.87-1.21 1.481L.63 21.993c-.306.78-.5 1.58-.584 2.4a9.313 9.313 0 0 0 .083 2.484l1.253 7.555a3.29 3.29 0 0 0 1.127 1.962 3.159 3.159 0 0 0 2.129.793H35.36c.807 0 1.517-.264 2.13-.793a3.29 3.29 0 0 0 1.126-1.962l1.253-7.555c.139-.835.167-1.663.083-2.484a9.036 9.036 0 0 0-.584-2.4zm-4.509 9.309c-.055.445-.264.82-.626 1.127-.361.306-.779.459-1.252.459H7.018c-.473 0-.89-.153-1.252-.46a1.716 1.716 0 0 1-.626-1.126l-.794-4.717c-.11-.585.028-1.1.418-1.545.39-.445.89-.668 1.503-.668h27.466c.613 0 1.114.223 1.503.668.39.445.529.96.418 1.545l-.794 4.717z"/>
</svg>
