{
  "owner": "obsidiansystems",
  "repo": "functor-infix",
  "branch": "master",
  "rev": "60f31b688ee3d512c7349a837282610ef63359bb",
  "sha256": "02viycydq6wrvb1szr6gid6j30x4gdjbffibhb3p7y17jy68asa7"
}
